testname is jbiadmin00001
IGNORE JBI_HOME is D:/nikita/dev/jsr208/asjbi/open-esb/install/as8/jbi
IGNORE JBI_DOMAIN_ROOT is D:/nikita/dev/jsr208/asjbi/open-esb/install/as8/domains/CAS
IGNORE jbi_instance_name is CAS
IGNORE jmx.provider is service:jmx:rmi:///jndi/rmi://Mystique01:23589/management/rmi-jmx-connector
##### Result of loadNewInstaller = com.sun.jbi:Target=domain,ServiceType=Installer,ComponentName=manage-binding-1
##### Result of install = com.sun.jbi:Target=domain,ServiceType=ComponentLifeCycle,ComponentName=manage-binding-1
##### Result of isBinding = true
##### Result of isEngine = false
##### Result of unloadInstaller = true
##### Result of loadInstaller = com.sun.jbi:Target=domain,ServiceType=Installer,ComponentName=manage-binding-1
##### Result of unloadInstaller = true
##### Result of installSharedLibrary = TestSharedLibrary
##### Result of uninstallSharedLibrary = true

BUILD SUCCESSFUL
IGNORE Total time: 4 seconds
