jbiadmin00016 : Test show-runtime-configuration for cluster instances.
Creating cluster : cluster1
Command create-cluster executed successfully.
Creating instance : instance2
Command create-instance executed successfully.
Starting instance : instance2
Command start-instance executed successfully.
 
executing show-runtime-configuration for instance1
IGNORE autoDeployDir = /Users/chikkala/dev/oesb/main/open-esb/install/as8/domains/CAS/autodeploy
autoDeployEnabled = false
IGNORE autoInstallDir = /Users/chikkala/dev/oesb/main/open-esb/install/as8/domains/CAS/jbi/autoinstall
autoInstallEnabled = true
autoRedeployEnabled = false
autoReinstallEnabled = true
autoUndeployEnabled = false
autoUninstallEnabled = true
componentTimeout = 0
deploymentTimeout = 0
heartBeatInterval = 5500
installationTimeout = 0
IGNORE jbiHome = /Users/chikkala/dev/oesb/main/open-esb/install/as8/jbi
msgSvcTimingStatisticsEnabled = false
serviceUnitTimeout = 0
startOnDeploy = true
startOnVerify = true
Command show-jbi-runtime-configuration executed successfully.
 
executing show-runtime-configuration for instance2
  ERROR:(UICMN2858)Runtime configuration is managed at the cluster level. Target "instance2" is a clustered instance. Please use the cluster target "cluster1" for this command.
CLI137 Command show-jbi-runtime-configuration failed.
Stopping instance : instance2
Command stop-instance executed successfully.
Deleting instance : instance2
Command delete-instance executed successfully.
Deleting cluster : cluster1
Command delete-cluster executed successfully.
