testname is jbiadmin01200
list, start, stop test for server
sun-wsdl-library
Command list-jbi-shared-libraries executed successfully.
sun-http-binding
Command list-jbi-binding-components executed successfully.
sun-javaee-engine
Command list-jbi-service-engines executed successfully.
Started component sun-http-binding.
Stopped component sun-http-binding.
Started component sun-javaee-engine.
Stopped component sun-javaee-engine.
  ERROR:(JBIMA1323)Component sun-http-binding has been previously installed on target server.
CLI137 Command install-jbi-component failed.
list, start, stop test for instance1
sun-wsdl-library
Command list-jbi-shared-libraries executed successfully.
sun-http-binding
Command list-jbi-binding-components executed successfully.
sun-javaee-engine
Command list-jbi-service-engines executed successfully.
Started component sun-http-binding.
Stopped component sun-http-binding.
Started component sun-javaee-engine.
Stopped component sun-javaee-engine.
deploy test on server
IGNORE Nothing to List. IGNORING because of a bug in asadmin --lifecyclestate implementation, Mark Saunders is aware of this
Command list-jbi-binding-components executed successfully.
Deployed service assembly system-comps-sa.
sun-http-binding
Command list-jbi-binding-components executed successfully.
deploy test on instance1
IGNORE Nothing to List. IGNORING because of a bug in asadmin --lifecyclestate implementation, Mark Saunders is aware of this
Command list-jbi-binding-components executed successfully.
Deployed service assembly system-comps-sa.
sun-http-binding
Command list-jbi-binding-components executed successfully.
undeploy, uninstall test on instance1
Undeployed service assembly system-comps-sa.
Stopped component sun-http-binding.
Shut Down component sun-http-binding.
Uninstalled component sun-http-binding.
testing install from domain
Installing a component
IGNORE  jmx connection info: (host=localhost, port=5011, secure=true, username=admin, target=instance1 )
  name=sun-http-binding
Install component succeeded. [
sun-http-binding
]

BUILD SUCCESSFUL
IGNORE Total time: 12 seconds
Started component sun-http-binding.
Stopped component sun-http-binding.
Shut Down component sun-http-binding.
Uninstalled component sun-http-binding.
Uninstalled component sun-http-binding.
Uninstalled component sun-http-binding.
undeploy, uninstall test on server
Undeployed service assembly system-comps-sa.
Shut Down component sun-http-binding.
Uninstalled component sun-http-binding.
reinstall test on server
Installed component sun-http-binding.
reinstall test on instance1
Installed component sun-http-binding.
