jbiadmin03001 : Test fix for CR 6532519 - not able to start system components in standalone instance
Starting domain ESBTest
Creating nodeagent esbagent1
Creating instance esbinst1
Starting sun-http-binding on target esbinst1
Started component sun-http-binding.
Deleting instance esbinst1
Deleting node agent config for esbagent1
Deleting node agent esbagent1
Stopping domain ESBTest
