jbiadmin00115 : Negative tests for component and shared library install/uninstall
IGNORE JBI_HOME is D:/nikita/dev/jsr208/main/open-esb/install/as8/jbi
IGNORE JBI_DOMAIN_ROOT is D:/nikita/dev/jsr208/main/open-esb/install/as8/domains/CAS
IGNORE jbi_instance_name is server
IGNORE jmx.provider is service:jmx:rmi:///jndi/rmi://Mystique01:10789/management/rmi-jmx-connector

BUILD SUCCESSFUL
IGNORE Total time: 1 second
IGNORE asant -emacs -q -lib D:/nikita/dev/jsr208/main/open-esb/install/as8/jbi/lib/jbi-ant-tasks.jar -f D:/nikita/dev/jsr208/main/open-esb/install/as8/jbi/bin/jbi_admin.xml -Djbi.username=admin -Djbi.password=adminadmin -Djbi.port=6951 -Djbi.secure=true -Djbi.task.fail.on.error=false
Installing a component
IGNORE jmx connection info: (host=localhost, port=6951, secure=true, username=admin, target=domain )
IGNORE file=D:/nikita/dev/jsr208/main/open-esb/runtime/esb-manage/bld/test-classes/dist/component-binding1.jar
Install component succeeded. [
manage-binding-1
]

BUILD SUCCESSFUL
IGNORE Total time: 3 seconds
Uninstalling a component
IGNORE jmx connection info: (host=localhost, port=6951, secure=true, username=admin, target=server )
IGNORE name=manage-binding-1
Uninstall component failed. [
  ERROR:(JBIMA1322)Component manage-binding-1 is not installed on target server.
]

BUILD SUCCESSFUL
IGNORE Total time: 2 seconds
Installing a component
IGNORE jmx connection info: (host=localhost, port=6951, secure=true, username=admin, target=server )
IGNORE   file=D:/nikita/dev/jsr208/main/open-esb/runtime/esb-manage/bld/test-classes/dist/component-binding3.jar
Install component failed. [
  ERROR:(JBIMA1326)The component manage-binding-3 cannot be installed. The following Shared Libraries must be installed first: TestSharedLibrary.
]

BUILD SUCCESSFUL
IGNORE Total time: 3 seconds
Installing a component
IGNORE   jmx connection info: (host=localhost, port=6951, secure=true, username=admin, target=server )
IGNORE   file=D:/nikita/dev/jsr208/main/open-esb/runtime/esb-manage/bld/test-classes/dist/component-binding1.jar
Install component succeeded. [
manage-binding-1
]

BUILD SUCCESSFUL
IGNORE Total time: 2 seconds
Installing a component
IGNORE  jmx connection info: (host=localhost, port=6951, secure=true, username=admin, target=server )
IGNORE  file=D:/nikita/dev/jsr208/main/open-esb/runtime/esb-manage/bld/test-classes/dist/component-binding1.jar
Install component failed. [
  ERROR:(JBIMA1323)Component manage-binding-1 has been previously installed on target server.
]

BUILD SUCCESSFUL
IGNORE Total time: 2 seconds
Installing a component
IGNORE jmx connection info: (host=localhost, port=6951, secure=true, username=admin, target=server )
IGNORE   file=D:/nikita/dev/jsr208/main/open-esb/runtime/esb-manage/bld/test-classes/dist/component-binding2.jar
Install component succeeded. [
manage-binding-2
]

BUILD SUCCESSFUL
IGNORE Total time: 3 seconds
Starting a component
IGNORE   jmx connection info: (host=localhost, port=6951, secure=true, username=admin, target=server )
IGNORE   name=manage-binding-1
Start component succeeded. [
manage-binding-1
]

BUILD SUCCESSFUL
IGNORE Total time: 2 seconds
Starting a component
IGNORE   jmx connection info: (host=localhost, port=6951, secure=true, username=admin, target=server )
IGNORE   name=manage-binding-2
Start component succeeded. [
manage-binding-2
]

BUILD SUCCESSFUL
IGNORE Total time: 2 seconds
Deploying a service assembly
IGNORE   jmx connection info: (host=localhost, port=6951, secure=true, username=admin, target=server )
IGNORE file=D:/nikita/dev/jsr208/main/open-esb/runtime/esb-manage/bld/test-classes/dist/deploy-sa.jar
Service assembly deployment succeeded. [
esbadmin00089-sa
]

BUILD SUCCESSFUL
IGNORE Total time: 2 seconds
Uninstalling a component
IGNORE   jmx connection info: (host=localhost, port=6951, secure=true, username=admin, target=server )
IGNORE   name=manage-binding-1
Uninstall component failed. [
  ERROR:(JBIMA1325)Uninstallation of component manage-binding-1 cannot proceed because the following Service Units are still deployed: esbadmin00089-su-1.
]

BUILD SUCCESSFUL
IGNORE Total time: 2 seconds
Uninstalling a component
IGNORE   jmx connection info: (host=localhost, port=6951, secure=true, username=admin, target=server )
IGNORE   name=manage-binding-2
Uninstall component failed. [
  ERROR:(JBIMA1325)Uninstallation of component manage-binding-2 cannot proceed because the following Service Units are still deployed: esbadmin00089-su-2.
]

BUILD SUCCESSFUL
IGNORE Total time: 2 seconds
Undeploying a service assembly
IGNORE   jmx connection info: (host=localhost, port=6951, secure=true, username=admin, target=server )
IGNORE   name=esbadmin00089-sa
Service assembly undeployment succeeded. [
esbadmin00089-sa
]

BUILD SUCCESSFUL
IGNORE Total time: 2 seconds
Stopping a component
IGNORE   jmx connection info: (host=localhost, port=6951, secure=true, username=admin, target=server )
IGNORE   name=manage-binding-1
Stop component succeeded. [
manage-binding-1
]

BUILD SUCCESSFUL
IGNORE Total time: 2 seconds
Stopping a component
IGNORE   jmx connection info: (host=localhost, port=6951, secure=true, username=admin, target=server )
IGNORE   name=manage-binding-2
Stop component succeeded. [
manage-binding-2
]

BUILD SUCCESSFUL
IGNORE Total time: 2 seconds
Shutting down a component
IGNORE   jmx connection info: (host=localhost, port=6951, secure=true, username=admin, target=server )
IGNORE   name=manage-binding-1
Shutdown component succeeded. [
manage-binding-1
]

BUILD SUCCESSFUL
IGNORE Total time: 2 seconds
Shutting down a component
IGNORE   jmx connection info: (host=localhost, port=6951, secure=true, username=admin, target=server )
IGNORE   name=manage-binding-2
Shutdown component succeeded. [
manage-binding-2
]

BUILD SUCCESSFUL
IGNORE Total time: 2 seconds
Uninstalling a component
IGNORE   jmx connection info: (host=localhost, port=6951, secure=true, username=admin, target=server )
IGNORE   name=manage-binding-1
Uninstall component succeeded. [
manage-binding-1
]

BUILD SUCCESSFUL
IGNORE Total time: 2 seconds
Uninstalling a component
IGNORE   jmx connection info: (host=localhost, port=6951, secure=true, username=admin, target=server )
IGNORE   name=manage-binding-2
Uninstall component succeeded. [
manage-binding-2
]

BUILD SUCCESSFUL
IGNORE Total time: 2 seconds
