jbiem00001 - Test event management forwarding MBeans send event from CAS instance1
Starting node-agent : agent1
IGNORE Redirecting output to C:/cygwin/bld/open-esb/install/as8/nodeagents/agent1/agent/logs/server.log
IGNORE Redirecting application output to C:/cygwin/bld/open-esb/install/as8/nodeagents/agent1/agent/logs/server.log
Command start-node-agent executed successfully.
Starting instance : instance1
Command start-instance executed successfully.
IGNORE JBI_HOME is /bld/open-esb/install/as8/jbi
IGNORE JBI_DOMAIN_ROOT is /bld/open-esb/install/as8/domains/CAS
IGNORE jbi_instance_name is server
IGNORE jmx.provider is service:jmx:rmi:///jndi/rmi://RDAMIR-GX280XP.stc.com:8689/management/rmi-jmx-connector
get mbean connection to  instance1
deployment of test support application successful
Added notification listener
Invoked test send event
verifying received event data
 element Physical Host Name value : equal to instance1 (OK)
 element Server Type value : equal to INTEGRATION (OK)
 element Component Type value : equal to EventManagement (OK)
 element event Type value : equal to Alert (OK)
 element Severity value value : equal to 1 (OK)
 element Message Code value : equal to CUSTOM-00001 (OK)
 element Message Details value : equal to This is single event test (OK)
##### Result of  test event forwarding passed
Removed notification listener
undeployment of test support application successful

BUILD SUCCESSFUL
IGNORE Total time: 4 seconds
