
-------------------------------------------------------------------
 Start Test : jbi-admin-cli00007
 Description: Test The Component Upgrade Command
-------------------------------------------------------------------
-------------------------------------------------------------------
 Building the test artifacts
-------------------------------------------------------------------

-------------------------------------------------------------------
 Install shared library cli_test_sns1
-------------------------------------------------------------------
install-jbi-shared-library cli-test-sns1.jar
Installed shared library cli_test_sns1.

-------------------------------------------------------------------
 Install service engine cli_test_engine4
-------------------------------------------------------------------
install-jbi-component cli-test-engine4.jar
Installed component cli_test_engine4.

-------------------------------------------------------------------
 Start the component cli_test_engine4
-------------------------------------------------------------------
start-jbi-component cli_test_engine4
  ERROR:(JBIFW1149)Engine cli_test_engine4 cannot be started. The LifeCycle start() method threw a javax.jbi.JBIException exception.
    Caused by:(JBIMA0000)Can not load DummyTest class

-------------------------------------------------------------------
 Shut Down the component cli_test_engine4
-------------------------------------------------------------------
shut-down-jbi-component cli_test_engine4
Shut Down component cli_test_engine4.

-------------------------------------------------------------------
 Show the components
-------------------------------------------------------------------
show-jbi-service-engine cli_test_engine4

Component Information
---------------------
Name        : cli_test_engine4
State       : Shutdown
Description : cli test engine4 without shared namespace.
 
Command show-jbi-service-engine executed successfully.

-------------------------------------------------------------------
 Upgrade component cli_test_engine4 with cli_test_engine4-1
-------------------------------------------------------------------
upgrade-jbi-component --upgradefile=ant-test-engine4-1.jar cli_test_engine4
Command upgrade-jbi-component executed successfully.

-------------------------------------------------------------------
 Show the components
-------------------------------------------------------------------
show-jbi-service-engine cli_test_engine4

Component Information
---------------------
Name        : cli_test_engine4
State       : Shutdown
Description : cli test engine4 without shared namespace.
 
Command show-jbi-service-engine executed successfully.

-------------------------------------------------------------------
 Start the component cli_test_engine4
-------------------------------------------------------------------
start-jbi-component cli_test_engine4
Started component cli_test_engine4.

-------------------------------------------------------------------
 Show the components
-------------------------------------------------------------------
show-jbi-service-engine cli_test_engine4

Component Information
---------------------
Name        : cli_test_engine4
State       : Started
Description : cli test engine4 without shared namespace.
 
Command show-jbi-service-engine executed successfully.

-------------------------------------------------------------------
 Stop the component cli_test_engine4
-------------------------------------------------------------------
stop-jbi-component cli_test_engine4
Stopped component cli_test_engine4.

-------------------------------------------------------------------
 Shut Down the component cli_test_engine4
-------------------------------------------------------------------
shut-down-jbi-component cli_test_engine4
Shut Down component cli_test_engine4.

-------------------------------------------------------------------
 Show the components
-------------------------------------------------------------------
show-jbi-service-engine cli_test_engine4

Component Information
---------------------
Name        : cli_test_engine4
State       : Shutdown
Description : cli test engine4 without shared namespace.
 
Command show-jbi-service-engine executed successfully.
