
-------------------------------------------------------------------
 Start Test : jbi-admin-cli00010
 Description: Test Application Variable Commands
-------------------------------------------------------------------
-------------------------------------------------------------------
 Building the test artifacts
-------------------------------------------------------------------
-------------------------------------------------------------------
 Building and packaging the test component cli-config-binding
-------------------------------------------------------------------

-------------------------------------------------------------------
 List the Application Variables for the cli-config-binding component
-------------------------------------------------------------------
list-jbi-application-variables --component=cli-config-binding
default = [STRING]defValue
Command list-jbi-application-variables executed successfully.

-------------------------------------------------------------------
 Create the Application Variables for the cli-config-binding component using the command line
-------------------------------------------------------------------
create-jbi-application-variable --component=cli-config-binding FirstName=[String]Fred,LastName=Smith,t=[Boolean]true,f=[Boolean]false
Command create-jbi-application-variable executed successfully.

-------------------------------------------------------------------
 List the Application Variables for the cli-config-binding component
-------------------------------------------------------------------
list-jbi-application-variables --component=cli-config-binding
FirstName = [STRING]Fred
LastName = [STRING]Smith
default = [STRING]defValue
f = [BOOLEAN]false
t = [BOOLEAN]true
Command list-jbi-application-variables executed successfully.

-------------------------------------------------------------------
 List again and save the output in the property file appVariables.property
-------------------------------------------------------------------
list-jbi-application-variables --terse --component=cli-config-binding
FirstName = [STRING]Fred
LastName = [STRING]Smith
default = [STRING]defValue
f = [BOOLEAN]false
t = [BOOLEAN]true

-------------------------------------------------------------------
 Try to create the same application variable that was already created ** Should generate and Error **
-------------------------------------------------------------------
create-jbi-application-variable --component=cli-config-binding FirstName=[String]Tom
  ERROR: Application Variable: FirstName
    (JBIMA1809)An application variable with name FirstName is already defined in the component.

-------------------------------------------------------------------
 List the Application Variables for the cli-config-binding component
-------------------------------------------------------------------
list-jbi-application-variables --component=cli-config-binding
FirstName = [STRING]Fred
LastName = [STRING]Smith
default = [STRING]defValue
f = [BOOLEAN]false
t = [BOOLEAN]true
Command list-jbi-application-variables executed successfully.

-------------------------------------------------------------------
 Update some existing variables from the command line
-------------------------------------------------------------------
update-jbi-application-variable --component=cli-config-binding FirstName=[String]Steve,LastName=Jones
Command update-jbi-application-variable executed successfully.

-------------------------------------------------------------------
 List the Application Variables for the cli-config-binding component
-------------------------------------------------------------------
list-jbi-application-variables --component=cli-config-binding
FirstName = [STRING]Steve
LastName = [STRING]Jones
default = [STRING]defValue
f = [BOOLEAN]false
t = [BOOLEAN]true
Command list-jbi-application-variables executed successfully.

-------------------------------------------------------------------
 Update/restore some existing variables using the saved properties file
-------------------------------------------------------------------
update-jbi-application-variable --component=cli-config-binding appVariables.property
Command update-jbi-application-variable executed successfully.

-------------------------------------------------------------------
 List the Application Variables for the cli-config-binding component
-------------------------------------------------------------------
list-jbi-application-variables --component=cli-config-binding
FirstName = [STRING]Fred
LastName = [STRING]Smith
default = [STRING]defValue
f = [BOOLEAN]false
t = [BOOLEAN]true
Command list-jbi-application-variables executed successfully.

-------------------------------------------------------------------
 Delete the application variables
-------------------------------------------------------------------
delete-jbi-application-variable --component=cli-config-binding FirstName,LastName
Command delete-jbi-application-variable executed successfully.

-------------------------------------------------------------------
 List the Application Variables for the cli-config-binding component
-------------------------------------------------------------------
list-jbi-application-variables --component=cli-config-binding
default = [STRING]defValue
f = [BOOLEAN]false
t = [BOOLEAN]true
Command list-jbi-application-variables executed successfully.

-------------------------------------------------------------------
 Create the Application Variables using a property file
-------------------------------------------------------------------
create-jbi-application-variable --component=cli-config-binding appVariables.property
An application variable with name f is already defined in the component.
    Application Variable: t
    (JBIMA1809)An application variable with name t is already defined in the component.
    Application Variable: default
    (JBIMA1809)An application variable with name default is already defined in the component.
Command create-jbi-application-variable executed successfully.

-------------------------------------------------------------------
 List the Application Variables for the cli-config-binding component
-------------------------------------------------------------------
list-jbi-application-variables --component=cli-config-binding
FirstName = [STRING]Fred
LastName = [STRING]Smith
default = [STRING]defValue
f = [BOOLEAN]false
t = [BOOLEAN]true
Command list-jbi-application-variables executed successfully.

-------------------------------------------------------------------
 Create an application variable that contains an embedded common and colon
-------------------------------------------------------------------
create-jbi-application-variable --component=cli-config-binding URL=http\://www.youraretheman.com,AMOUNT=\,000
Command create-jbi-application-variable executed successfully.

-------------------------------------------------------------------
 List the Application Variables for the cli-config-binding component
-------------------------------------------------------------------
list-jbi-application-variables --component=cli-config-binding
AMOUNT = [STRING]1,000
FirstName = [STRING]Fred
LastName = [STRING]Smith
URL = [STRING]http://www.youraretheman.com
default = [STRING]defValue
f = [BOOLEAN]false
t = [BOOLEAN]true
Command list-jbi-application-variables executed successfully.

-------------------------------------------------------------------
 Delete the application variables
-------------------------------------------------------------------
delete-jbi-application-variable --component=cli-config-binding URL,AMOUNT
Command delete-jbi-application-variable executed successfully.

-------------------------------------------------------------------
 List the Application Variables for the cli-config-binding component
-------------------------------------------------------------------
list-jbi-application-variables --component=cli-config-binding
default = [STRING]defValue
Command list-jbi-application-variables executed successfully.
