filebinding00005.ksh- Test MEPs - file binding test
IGNORE Installing a component
IGNORE   jmx connection info: (host=localhost, port=31387, username=admin)
IGNORE   file=/space/ramesh/lassen/binding/file/bld/regress/testengine/testengine.jar
Install component succeeded. [
TESTENGINE_FOR_FILEBINDING
]

BUILD SUCCESSFUL
IGNORE Total time: 1 second
Starting a component
IGNORE   jmx connection info: (host=localhost, port=31387, username=admin)
  name=TESTENGINE_FOR_FILEBINDING
Start component succeeded. [
TESTENGINE_FOR_FILEBINDING
]

BUILD SUCCESSFUL
IGNORE Total time: 1 second

Testing out-only with valid message
      2
      6


Testing out-only with invalid message
      2
      6


Testing in-out with valid message
      2
      4
      4


Testing in-only with valid message
      2
      5
      5

Stopping a component
IGNORE   jmx connection info: (host=localhost, port=31387, username=admin)
  name=TESTENGINE_FOR_FILEBINDING
Stop component succeeded. [
TESTENGINE_FOR_FILEBINDING
]

BUILD SUCCESSFUL
IGNORE Total time: 1 second
Shutting down a component
IGNORE   jmx connection info: (host=localhost, port=31387, username=admin)
  name=TESTENGINE_FOR_FILEBINDING
Shutdown component succeeded. [
TESTENGINE_FOR_FILEBINDING
]

BUILD SUCCESSFUL
IGNORE Total time: 1 second
Uninstalling a component
IGNORE   jmx connection info: (host=localhost, port=31387, username=admin)
  name=TESTENGINE_FOR_FILEBINDING
Uninstall component succeeded. [
TESTENGINE_FOR_FILEBINDING
]

BUILD SUCCESSFUL
IGNORE Total time: 1 second
Completed Testing file binding MEPs
