filebinding00004.ksh- DEPLOY file binding test
IGNORE added manifest
IGNORE adding: endpoints.wsdl(in = 8511) (out= 1286)(deflated 84%)
IGNORE ignoring entry META-INF/
IGNORE adding: META-INF/jbi.xml(in = 694) (out= 309)(deflated 55%)
IGNORE ignoring entry META-INF/MANIFEST.MF

BUILD SUCCESSFUL
IGNORE Total time: 0 seconds
Deploying a service assembly
IGNORE   jmx connection info: (host=localhost, port=14849, username=admin)
IGNORE   file=C:/cygwin/home/kcbabo/build/open-esb/ri-components/file-binding/runtime/bld/test-classes/test/deploy/filetestdeploy.zip
Service assembly deployment succeeded. [
9ae51feb-0fc3-4ff6-9104-cfd59d2a7815
]

BUILD SUCCESSFUL
IGNORE Total time: 1 second
Starting a service assembly
IGNORE   jmx connection info: (host=localhost, port=14849, username=admin)
  name=9ae51feb-0fc3-4ff6-9104-cfd59d2a7815
Start service assembly succeeded. [
9ae51feb-0fc3-4ff6-9104-cfd59d2a7815
]

BUILD SUCCESSFUL
IGNORE Total time: 0 seconds
Completed Deploying to file binding
