admincommon00012: Test component configuration support API's for a component which does not have any component/app configuration.
IGNORE jbi_instance_name is server
IGNORE jmx.provider is service:jmx:rmi:///jndi/rmi://nikita-sawants-computer.local:8687/management/rmi-jmx-connector

BUILD SUCCESSFUL
IGNORE Total time: 0 seconds
Installing a component
IGNORE   jmx connection info: (host=localhost, port=4849, secure=false, username=admin, target=server )
IGNORE   file=/Users/nikki/dev/jbi/open-esb/ri-clients/jbi-admin-common/bld/regress/testdata/component-with-empty-config-mbean.jar
Install component succeeded. [
dummy-binding
]

BUILD SUCCESSFUL
IGNORE Total time: 0 seconds
IGNORE jbi_instance_name is server
IGNORE jmx.provider is service:jmx:rmi:///jndi/rmi://nikita-sawants-computer.local:8687/management/rmi-jmx-connector
##### Result of  isAppVarsSupported = false
##### Result of  isAppConfigSupported = false
##### Result of  isComponentConfigSupported = false

BUILD SUCCESSFUL
IGNORE Total time: 1 second
Starting a component
IGNORE   jmx connection info: (host=localhost, port=4849, secure=false, username=admin, target=server )
  name=dummy-binding
Start component succeeded. [
dummy-binding
]

BUILD SUCCESSFUL
IGNORE Total time: 0 seconds
IGNORE jbi_instance_name is server
IGNORE jmx.provider is service:jmx:rmi:///jndi/rmi://nikita-sawants-computer.local:8687/management/rmi-jmx-connector
##### Result of  isAppVarsSupported = false
##### Result of  isAppConfigSupported = false
##### Result of  isComponentConfigSupported = false

BUILD SUCCESSFUL
IGNORE Total time: 1 second
  ERROR:(JBIMA1831)The operation failed because the component dummy-binding, does not support application configuration.
  ERROR:(JBIMA1831)The operation failed because the component dummy-binding, does not support application configuration.
  ERROR:(JBIMA1831)The operation failed because the component dummy-binding, does not support application configuration.
Creating application variables
IGNORE   jmx connection info: (host=localhost, port=4849, secure=false, username=admin, target=server )
Add application variable failed. [
  ERROR: Application Variable: Name
    (JBIMA1830)The operation failed because the component dummy-binding, does not support application variables.
]

BUILD SUCCESSFUL
IGNORE Total time: 0 seconds
Updating application variables
IGNORE   jmx connection info: (host=localhost, port=4849, secure=false, username=admin, target=server )
Set application variable failed. [
  ERROR: Application Variable: Name
    (JBIMA1830)The operation failed because the component dummy-binding, does not support application variables.
]

BUILD SUCCESSFUL
IGNORE Total time: 0 seconds
Deleting application variable
IGNORE   jmx connection info: (host=localhost, port=4849, secure=false, username=admin, target=server )
Delete application variable failed. [
  ERROR: Application Variable: abc
    (JBIMA1830)The operation failed because the component dummy-binding, does not support application variables.
]

BUILD SUCCESSFUL
IGNORE Total time: 0 seconds
Shutting down a component
IGNORE   jmx connection info: (host=localhost, port=4849, secure=false, username=admin, target=server )
  name=dummy-binding
Shutdown component succeeded. [
dummy-binding
]

BUILD SUCCESSFUL
IGNORE Total time: 0 seconds
Uninstalling a component
IGNORE   jmx connection info: (host=localhost, port=4849, secure=false, username=admin, target=server )
  name=dummy-binding
Uninstall component succeeded. [
dummy-binding
]

BUILD SUCCESSFUL
IGNORE Total time: 0 seconds
IGNORE jbi_instance_name is server
IGNORE jmx.provider is service:jmx:rmi:///jndi/rmi://nikita-sawants-computer.local:8687/management/rmi-jmx-connector

BUILD SUCCESSFUL
IGNORE Total time: 0 seconds
Installing a component
IGNORE   jmx connection info: (host=localhost, port=4849, secure=false, username=admin, target=server )
IGNORE   file=/Users/nikki/dev/jbi/open-esb/ri-clients/jbi-admin-common/bld/regress/testdata/component-with-empty-config-mbean.jar
Install component succeeded. [
dummy-binding
]

BUILD SUCCESSFUL
IGNORE Total time: 0 seconds
jbi_instance_name is server
IGNORE jmx.provider is service:jmx:rmi:///jndi/rmi://nikita-sawants-computer.local:8687/management/rmi-jmx-connector
##### Result of  isAppVarsSupported = Exception : <?xml version="1.0" encoding="UTF-8" standalone="yes"?><jbi-task version="1.0" xmlns="http://java.sun.com/xml/ns/jbi/management-message"><jbi-task-result><frmwk-task-result><frmwk-task-result-details><task-result-details><task-id>componentStartedOnTargetCheck</task-id><task-result>FAILED</task-result><message-type>ERROR</message-type><task-status-msg><msg-loc-info><loc-token>JBIMA1803</loc-token><loc-message>Component dummy-binding is in the Shutdown state. Cannot configure a component which is not in the Started state. </loc-message><loc-param>dummy-binding</loc-param><loc-param>Shutdown</loc-param><loc-param>server</loc-param></msg-loc-info></task-status-msg></task-result-details><locale>en</locale></frmwk-task-result-details></frmwk-task-result></jbi-task-result></jbi-task>
##### Result of  isAppConfigSupported = Exception : <?xml version="1.0" encoding="UTF-8" standalone="yes"?><jbi-task version="1.0" xmlns="http://java.sun.com/xml/ns/jbi/management-message"><jbi-task-result><frmwk-task-result><frmwk-task-result-details><task-result-details><task-id>componentStartedOnTargetCheck</task-id><task-result>FAILED</task-result><message-type>ERROR</message-type><task-status-msg><msg-loc-info><loc-token>JBIMA1803</loc-token><loc-message>Component dummy-binding is in the Shutdown state. Cannot configure a component which is not in the Started state. </loc-message><loc-param>dummy-binding</loc-param><loc-param>Shutdown</loc-param><loc-param>server</loc-param></msg-loc-info></task-status-msg></task-result-details><locale>en</locale></frmwk-task-result-details></frmwk-task-result></jbi-task-result></jbi-task>
##### Result of  isComponentConfigSupported = Exception : <?xml version="1.0" encoding="UTF-8" standalone="yes"?><jbi-task version="1.0" xmlns="http://java.sun.com/xml/ns/jbi/management-message"><jbi-task-result><frmwk-task-result><frmwk-task-result-details><task-result-details><task-id>componentStartedOnTargetCheck</task-id><task-result>FAILED</task-result><message-type>ERROR</message-type><task-status-msg><msg-loc-info><loc-token>JBIMA1803</loc-token><loc-message>Component dummy-binding is in the Shutdown state. Cannot configure a component which is not in the Started state. </loc-message><loc-param>dummy-binding</loc-param><loc-param>Shutdown</loc-param><loc-param>server</loc-param></msg-loc-info></task-status-msg></task-result-details><locale>en</locale></frmwk-task-result-details></frmwk-task-result></jbi-task-result></jbi-task>

BUILD SUCCESSFUL
IGNORE Total time: 1 second
Starting a component
IGNORE   jmx connection info: (host=localhost, port=4849, secure=false, username=admin, target=server )
  name=dummy-binding
Start component succeeded. [
dummy-binding
]

BUILD SUCCESSFUL
IGNORE Total time: 0 seconds
jbi_instance_name is server
IGNORE jmx.provider is service:jmx:rmi:///jndi/rmi://nikita-sawants-computer.local:8687/management/rmi-jmx-connector
##### Result of  isAppVarsSupported = false
##### Result of  isAppConfigSupported = false
##### Result of  isComponentConfigSupported = false

BUILD SUCCESSFUL
IGNORE Total time: 1 second
  ERROR:(JBIMA1831)The operation failed because the component dummy-binding, does not support application configuration.
  ERROR:(JBIMA1831)The operation failed because the component dummy-binding, does not support application configuration.
  ERROR:(JBIMA1831)The operation failed because the component dummy-binding, does not support application configuration.
Creating application variables
IGNORE   jmx connection info: (host=localhost, port=4849, secure=false, username=admin, target=server )
Add application variable failed. [
  ERROR: Application Variable: Name
    (JBIMA1830)The operation failed because the component dummy-binding, does not support application variables.
]

BUILD SUCCESSFUL
IGNORE Total time: 0 seconds
Updating application variables
IGNORE   jmx connection info: (host=localhost, port=4849, secure=false, username=admin, target=server )
Set application variable failed. [
  ERROR: Application Variable: Name
    (JBIMA1830)The operation failed because the component dummy-binding, does not support application variables.
]

BUILD SUCCESSFUL
IGNORE Total time: 0 seconds
Deleting application variable
IGNORE   jmx connection info: (host=localhost, port=4849, secure=false, username=admin, target=server )
Delete application variable failed. [
  ERROR: Application Variable: abc
    (JBIMA1830)The operation failed because the component dummy-binding, does not support application variables.
]

BUILD SUCCESSFUL
IGNORE Total time: 0 seconds
Shutting down a component
IGNORE   jmx connection info: (host=localhost, port=4849, secure=false, username=admin, target=server )
  name=dummy-binding
Shutdown component succeeded. [
dummy-binding
]

BUILD SUCCESSFUL
IGNORE Total time: 0 seconds
Uninstalling a component
IGNORE   jmx connection info: (host=localhost, port=4849, secure=false, username=admin, target=server )
  name=dummy-binding
Uninstall component succeeded. [
dummy-binding
]

BUILD SUCCESSFUL
IGNORE Total time: 0 seconds
