pb00003 : proxy NMS performance test
Install tbe TestEngine component
Installed component TestEngine.
Start the TestEngine component
Started component TestEngine.
Deploy SA to TestEngine component
Deployed service assembly TestEngine_SA.
Start SA in TestEngine component
Started service assembly TestEngine_SA.
