testname is manage00330
IGNORE JBI_HOME is C:\cygwin\home\kcbabo\build\open-esb\install\as8/jbi
IGNORE JBI_DOMAIN_ROOT is C:/cygwin/home/kcbabo/build/open-esb/install/as8/domains/domain1
IGNORE jbi_instance_name is server
IGNORE jbi_target_name is server
IGNORE jmx.provider is service:jmx:rmi:///jndi/rmi://orly:18686/management/rmi-jmx-connector
##### Result for getSystemService(InstallationService)='com.sun.jbi:Target=server,ServiceName=InstallationService,ServiceType=Installation'
IGNORE ##### Result for loadNewInstaller(file:/C:\cygwin\home\kcbabo\build\open-esb\install\as8/jbi/components/jbicalc/installers/mathlib1.jar)='com.sun.jbi:Target=server,ServiceType=Installer,ComponentName=mathlib1'
##### Result for install()='com.sun.jbi:Target=server,ServiceType=ComponentLifeCycle,ComponentName=mathlib1'
##### Result for unloadInstaller(mathlib1,false)='true'
##### Result for start()=''
##### getExtensionMBeanName='com.sun.jbi:JbiName=server,ComponentName=mathlib1,ControlType=Controller,ComponentType=Installed,InstalledType=Engine'
##### getcomponentName='mathlib1'
##### getComponentInfo='ModelEngineComponent:  mathlib1'
##### getHelp='no soup for you'
##### getDefaultLoggerMBean='com.sun.jbi:JbiName=server,ComponentName=mathlib1,ControlType=Logger,ComponentType=Installed,InstalledType=Engine'
##### getLoggerMBeans='[com.sun.jbi:JbiName=server,ComponentName=mathlib1,ControlType=Logger,ComponentType=Installed,InstalledType=Engine]'
##### Result for getLoggerMBeanByName(com.acme.jbi.mathlib.engine.MathLibraryServiceController)='com.sun.jbi:JbiName=server,ComponentName=mathlib1,ControlType=Logger,ComponentType=Installed,InstalledType=Engine'
##### getLifeCycleMBean='com.sun.jbi:JbiName=server,ComponentName=mathlib1,ControlType=Lifecycle,ComponentType=Installed,InstalledType=Engine'
##### getDeployerMBean='com.sun.jbi:JbiName=server,ComponentName=mathlib1,ControlType=Deployer,ComponentType=Installed,InstalledType=Engine'
##### Result for stop()=''
##### Result for shutDown()=''
##### Result for loadInstaller(mathlib1)='com.sun.jbi:Target=server,ServiceType=Installer,ComponentName=mathlib1'
##### Result for uninstall()=''
##### Result for unloadInstaller(mathlib1,true)='true'

BUILD SUCCESSFUL
IGNORE Total time: 6 seconds
