runtime-ui-00101 : Test Framework, NMR, Component, Endpoint, SA Stats in server.
Setup server for getting some stats
-----------------------------------
IGNORE JBI_HOME is /gf/jbi
IGNORE jmx.provider is service:jmx:rmi:///jndi/rmi://AABDULJAFFAR:8789/management/rmi-jmx-connector

BUILD SUCCESSFUL
IGNORE Total time: 0 seconds   
Component stats in server before enabling statistics
----------------------------------------------------
Started component sun-http-binding.
IGNORE JBI_HOME is /gf/jbi
IGNORE jmx.provider is service:jmx:rmi:///jndi/rmi://AABDULJAFFAR:8790/management/rmi-jmx-connector
		ConsumingEndpoints:
		PerformanceMeasurementCategories:
			Normalization
			Denormalization
		ProvisioningEndpoints:
		ShortDisplayName=sun-http-binding
		TotalDone=0
		TotalErrors=0
		TotalReceivedDones=0
		TotalReceivedErrors=0
		TotalReceivedReplies=0
		TotalReceivedRequests=0
		TotalReplies=0
		TotalRequests=0
		TotalSentDones=0
		TotalSentErrors=0
		TotalSentReplies=0
		TotalSentRequests=0
IGNORE 	ComponentUpTime (ms)=24171
	InstanceName=server
	NumActivatedEndpoints=1
	NumActiveExchanges=0
	NumActiveExchangesMax=0
	NumCompletedExchanges=0
	NumErrorExchanges=0
	NumQueuedExchanges=0
	NumQueuedExchangesMax=0
	NumReceivedDONEs=0
	NumReceivedErrors=0
	NumReceivedFaults=0
	NumReceivedReplies=0
	NumReceivedRequests=0
	NumSentDONEs=0
	NumSentErrors=0
	NumSentFaults=0
	NumSentReplies=0
	NumSentRequests=0

BUILD SUCCESSFUL
IGNORE Total time: 1 second
Command set-jbi-runtime-configuration executed successfully.
Component stats in server after enabling statistics before doing message exchange
---------------------------------------------------------------------------------
IGNORE JBI_HOME is /gf/jbi
IGNORE jmx.provider is service:jmx:rmi:///jndi/rmi://AABDULJAFFAR:8790/management/rmi-jmx-connector
		ConsumingEndpoints:
		PerformanceMeasurementCategories:
			Normalization
			Denormalization
		ProvisioningEndpoints:
		ShortDisplayName=sun-http-binding
		TotalDone=0
		TotalErrors=0
		TotalReceivedDones=0
		TotalReceivedErrors=0
		TotalReceivedReplies=0
		TotalReceivedRequests=0
		TotalReplies=0
		TotalRequests=0
		TotalSentDones=0
		TotalSentErrors=0
		TotalSentReplies=0
		TotalSentRequests=0
IGNORE 	ComponentUpTime (ms)=27984
	InstanceName=server
	NumActivatedEndpoints=1
	NumActiveExchanges=0
	NumActiveExchangesMax=0
	NumCompletedExchanges=0
	NumErrorExchanges=0
	NumQueuedExchanges=0
	NumQueuedExchangesMax=0
	NumReceivedDONEs=0
	NumReceivedErrors=0
	NumReceivedFaults=0
	NumReceivedReplies=0
	NumReceivedRequests=0
	NumSentDONEs=0
	NumSentErrors=0
	NumSentFaults=0
	NumSentReplies=0
	NumSentRequests=0

BUILD SUCCESSFUL
IGNORE Total time: 1 second
Deployed service assembly PingApp.
Started service assembly PingApp.
Installed component SimpleTestEngine.
Started component SimpleTestEngine.
Framework stats in Server
-------------------------
IGNORE JBI_HOME is /gf/jbi
IGNORE jmx.provider is service:jmx:rmi:///jndi/rmi://AABDULJAFFAR:8789/management/rmi-jmx-connector
 	InstanceName=server
IGNORE 	StartupTime (ms)=2892
IGNORE 	UpTime (ms)=557609

BUILD SUCCESSFUL
IGNORE Total time: 1 second
NMR stats in Server
-------------------
IGNORE JBI_HOME is /gf/jbi
IGNORE jmx.provider is service:jmx:rmi:///jndi/rmi://AABDULJAFFAR:8789/management/rmi-jmx-connector
	InstanceName=server
	ListActiveChannels:
		sun-http-binding
		SimpleTestEngine
		sun-javaee-engine
	ListActiveEndpoints:
 		http://www.sun.com/jbi/qos/redelivery,sun-http-binding,redeliveryLoopback
		http://ping,PingService,PingPort
		http://ping,PingService,ConsumingPingPort

BUILD SUCCESSFUL
IGNORE Total time: 1 second
Component stats in Server
-------------------------
IGNORE JBI_HOME is /gf/jbi
IGNORE jmx.provider is service:jmx:rmi:///jndi/rmi://AABDULJAFFAR:8789/management/rmi-jmx-connector
		ConsumingEndpoints:
		PerformanceMeasurementCategories:
			Normalization
			Denormalization
		ProvisioningEndpoints:
			http://ping,PingService,PingPort,Provider
		ShortDisplayName=sun-http-binding
		TotalDone=0
		TotalErrors=0
		TotalReceivedDones=0
		TotalReceivedErrors=0
		TotalReceivedReplies=0
		TotalReceivedRequests=1
		TotalReplies=1
		TotalRequests=1
		TotalSentDones=0
		TotalSentErrors=0
		TotalSentReplies=1
		TotalSentRequests=0
IGNORE	ComponentUpTime (ms)=414813
	InstanceName=server
IGNORE  MessageExchangeComponentTime Avg (ns)=1
IGNORE	MessageExchangeDeliveryTime Avg (ns)=21139
IGNORE	MessageExchangeNMRTime Avg (ns)=318103
IGNORE	MessageExchangeResponseTime Avg (ns)=54723994
	MessageExchangeStatusTime Avg (ns)=0
	NumActivatedEndpoints=2
IGNORE 	NumActiveExchanges=1
IGNORE 	NumActiveExchangesMax=1
	NumCompletedExchanges=1
IGNORE 	NumErrorExchanges=1
IGNORE 	NumQueuedExchanges=1
IGNORE 	NumQueuedExchangesMax=1
	NumReceivedDONEs=0
	NumReceivedErrors=0
	NumReceivedFaults=0
	NumReceivedReplies=0
IGNORE 	NumReceivedRequests=1
IGNORE	NumSentDONEs=0
IGNORE 	NumSentErrors=1
	NumSentFaults=0
	NumSentReplies=0
	NumSentRequests=0

BUILD SUCCESSFUL
IGNORE Total time: 1 second
List of providing endpoint for component
----------------------------------------
IGNORE JBI_HOME is /gf/jbi
IGNORE jmx.provider is service:jmx:rmi:///jndi/rmi://AABDULJAFFAR:8789/management/rmi-jmx-connector
	Endpoints:
		http://ping,PingService,ConsumingPingPort
	InstanceName=server

BUILD SUCCESSFUL
IGNORE Total time: 1 second
List of consuming endpoints for component
-----------------------------------------
IGNORE JBI_HOME is /gf/jbi
IGNORE jmx.provider is service:jmx:rmi:///jndi/rmi://AABDULJAFFAR:8789/management/rmi-jmx-connector
	Endpoints:
		http://ping,PingService,PingPort
		http://www.sun.com/jbi/qos/redelivery,sun-http-binding,redeliveryLoopback
	InstanceName=server

BUILD SUCCESSFUL
IGNORE Total time: 2 seconds
Providing endpoint stats in server
----------------------------------
IGNORE JBI_HOME is /gf/jbi
IGNORE jmx.provider is service:jmx:rmi:///jndi/rmi://AABDULJAFFAR:8789/management/rmi-jmx-connector
IGNORE 	ActivationTime=Wed Dec 05 08:15:56 PST 2007
	ComponentName=sun-http-binding
IGNORE	EndpointUpTime (ms)=14531
	InstanceName=server
IGNORE        MessageExchangeComponentTime Avg (ns)=267490142
IGNORE        MessageExchangeDeliveryTime Avg (ns)=126273
IGNORE        MessageExchangeNMRTime Avg (ns)=2909867
IGNORE        MessageExchangeResponseTime Avg (ns)=270564555
    	NumActiveExchanges=0
	NumReceivedDONEs=0
	NumReceivedErrors=0
	NumReceivedFaults=0
	NumReceivedRequests=1
	NumSentDONEs=0
	NumSentErrors=1
	NumSentFaults=0
	NumSentReplies=0

IGNORE 	act=0
IGNORE 	average (ms)=5.881753
IGNORE 	average' (ms)=0.4017269999999993
IGNORE 	first (ms)=16.841805
IGNORE 	last-first (ms)=818964.261939
IGNORE 	load=2.1545822954729873E-5
IGNORE 	median (ms)=0.5381737057623773
IGNORE 	n=3
 	source=com.sun.jbi.httpsoapbc.OutboundMessageProcessor
	sub topic=Denormalization
IGNORE 	throughput (s-1)=0.0036631635083502942
	topic=http://ping,PingService,PingPort,Provider
IGNORE 	total time (ms)=17.645259

BUILD SUCCESSFUL
IGNORE Total time: 1 second
Consuming endpoint stats in server
----------------------------------
IGNORE JBI_HOME is /gf/jbi
IGNORE jmx.provider is service:jmx:rmi:///jndi/rmi://AABDULJAFFAR:8789/management/rmi-jmx-connector
	ComponentName=SimpleTestEngine
	InstanceName=server
IGNORE 	ME-ComponentTime-Avg=18717
IGNORE 	ME-DeliveryChannelTime-Avg=3351823
IGNORE 	ME-MessageServiceTime-Avg=78502
 	MessageExchangeStatusTime Avg (ns)=0
	NumActiveExchanges=0
	NumReceivedDONEs=0
	NumReceivedErrors=1
	NumReceivedFaults=0
	NumReceivedReplies=0
	NumSentDONEs=0
	NumSentErrors=0
	NumSentFaults=0
	NumSentRequests=1

BUILD SUCCESSFUL
IGNORE Total time: 1 second
Service Assembly stats in server
--------------------------------
IGNORE JBI_HOME is /gf/jbi
IGNORE jmx.provider is service:jmx:rmi:///jndi/rmi://AABDULJAFFAR:8790/management/rmi-jmx-connector
	InstanceName=server
IGNORE 	LastStartupTime=Thu Mar 06 23:25:52 PST 2008
	ServiceAssemblyName=PingApp
	ServiceUnitStatistics:
		ServiceUnitName=PingApp-sun-http-binding
IGNORE 		ServiceUnitStartupTime Avg (ms)=828
IGNORE 	StartupTime Avg (ms)=843
IGNORE 	UpTime (ms)=23844

BUILD SUCCESSFUL
IGNORE Total time: 1 second
Stopped service assembly PingApp.
Shut Down service assembly PingApp.
Service Assembly stats in server
--------------------------------
IGNORE JBI_HOME is /gf/jbi
IGNORE jmx.provider is service:jmx:rmi:///jndi/rmi://annies.red.iplanet.com:8790/management/rmi-jmx-connector
	InstanceName=server
IGNORE 	LastStartupTime=Mon Mar 24 17:29:03 PDT 2008
	ServiceAssemblyName=PingApp
	ServiceUnitStatistics:
		ServiceUnitName=PingApp-sun-http-binding
IGNORE 		ServiceUnitShutdownTime Avg (ms)=16
IGNORE 		ServiceUnitStartupTime Avg (ms)=1750
IGNORE 		ServiceUnitStopTime Avg (ms)=15
IGNORE 	ShutdownTime Avg (ms)=94
IGNORE 	StartupTime Avg (ms)=1828
IGNORE 	StopTime Avg (ms)=94
IGNORE 	UpTime (ms)=73985

BUILD SUCCESSFUL
IGNORE Total time: 4 seconds
Undeployed service assembly PingApp.
Shut Down component SimpleTestEngine.
Uninstalled component SimpleTestEngine.
