runtime-ui-00004 : Test Verifier.
prepare the artifacts
IGNORE JBI_HOME is C:/cygwin/home/yz72237/build/open-esb/install/jbise/jbi
IGNORE jmx.provider is service:jmx:rmi:///jndi/rmi://localhost:8699/jmxrmi

BUILD SUCCESSFUL
IGNORE Total time: 1 second
Buildfile: runtime-ui-00004.xml does not exist!
install the components
[i18n-echo] Installing a component
IGNORE [i18n-echo]   jmx connection info: (host=localhost, port=8699, secure=false, username=admin, target=server )
IGNORE [i18n-echo]   file=C:/cygwin/home/yz72237/build/open-esb/runtime/ui/bld/test-classes/dist/test-component.jar
[jbi-install-component] Install component succeeded. [
[jbi-install-component] test-component
[jbi-install-component] ]

BUILD SUCCESSFUL
IGNORE Total time: 2 seconds
[i18n-echo] Installing a component
IGNORE [i18n-echo]   jmx connection info: (host=localhost, port=8699, secure=false, username=admin, target=server )
IGNORE [i18n-echo]   file=C:/cygwin/home/yz72237/build/open-esb/runtime/ui/bld/test-classes/dist/test-component1.jar
[jbi-install-component] Install component succeeded. [
[jbi-install-component] test-component1
[jbi-install-component] ]

BUILD SUCCESSFUL
IGNORE Total time: 2 seconds
start the components
[i18n-echo] Starting a component
IGNORE [i18n-echo]   jmx connection info: (host=localhost, port=8699, secure=false, username=admin, target=server )
[i18n-echo]   name=test-component
[jbi-start-component] Start component succeeded. [
[jbi-start-component] test-component
[jbi-start-component] ]

BUILD SUCCESSFUL
IGNORE Total time: 2 seconds
[i18n-echo] Starting a component
IGNORE [i18n-echo]   jmx connection info: (host=localhost, port=8699, secure=false, username=admin, target=server )
[i18n-echo]   name=test-component1
[jbi-start-component] Start component succeeded. [
[jbi-start-component] test-component1
[jbi-start-component] ]

BUILD SUCCESSFUL
IGNORE Total time: 2 seconds
set some application variables
[i18n-echo] Creating application variables
IGNORE [i18n-echo]   jmx connection info: (host=localhost, port=8699, secure=false, username=admin, target=server )
[jbi-create-application-variables] Add application variable succeeded.

BUILD SUCCESSFUL
IGNORE Total time: 2 seconds
[i18n-echo] Creating application variables
IGNORE [i18n-echo]   jmx connection info: (host=localhost, port=8699, secure=false, username=admin, target=server )
[jbi-create-application-variables] Add application variable succeeded.

BUILD SUCCESSFUL
IGNORE Total time: 2 seconds
set some application configurations
[i18n-echo] Creating application configuration
IGNORE [i18n-echo]   jmx connection info: (host=localhost, port=8699, secure=false, username=admin, target=server )
[jbi-create-application-configuration] Add application configuration succeeded.

BUILD SUCCESSFUL
IGNORE Total time: 2 seconds
[i18n-echo] Creating application configuration
IGNORE [i18n-echo]   jmx connection info: (host=localhost, port=8699, secure=false, username=admin, target=server )
[jbi-create-application-configuration] Add application configuration succeeded.

BUILD SUCCESSFUL
IGNORE Total time: 2 seconds
[i18n-echo] Creating application configuration
IGNORE [i18n-echo]   jmx connection info: (host=localhost, port=8699, secure=false, username=admin, target=server )
[jbi-create-application-configuration] Add application configuration succeeded.

BUILD SUCCESSFUL
IGNORE Total time: 2 seconds
deploy the SA with WSDL 1.1
[i18n-echo] Deploying a service assembly
IGNORE [i18n-echo]   jmx connection info: (host=localhost, port=8699, secure=false, username=admin, target=server )
IGNORE [i18n-echo]   file=C:/cygwin/home/yz72237/build/open-esb/runtime/ui/bld/test-classes/dist/test-sa.jar
[jbi-deploy-service-assembly] Service assembly deployment succeeded. [
[jbi-deploy-service-assembly] SA1
[jbi-deploy-service-assembly] ]

BUILD SUCCESSFUL
IGNORE Total time: 2 seconds
export the environment
Exporting application environment
IGNORE  jmx connection info: (host=localhost, port=8699, secure=false, username=admin, target=server )
Export application environment succeeded. [
IGNORE Application Environment has been exported to "C:/cygwin/home/yz72237/build/open-esb/runtime/ui/bld/config". 
]

BUILD SUCCESSFUL
IGNORE Total time: 2 seconds
dump the templates and scripts generated by verifier
# This file is generated by verifier. Please provide configuration values below.
IGNORE #Mon Jul 14 19:36:08 PDT 2008
GREETINGS=[STRING]Hello
INPUT_LOCATION=[STRING]c\:/in
OUTPUT_LOCATION=[STRING]c\:/out
sonic_sec_principal=
# This file is generated by verifier. Please provide configuration values below.
IGNORE #Mon Jul 14 19:36:08 PDT 2008
PROCESSED_LOCATION=[STRING]c\:processed
NEW_LOCATION=[STRING]c\:\new
sonic_sec_principal=
# This file is generated by verifier. Please provide configuration values below.
IGNORE #Mon Jul 14 19:36:08 PDT 2008
jndienv.0="com.sonicsw.jndi.mfcontext.domain\=Domain1"
securityCredential=${sonic_sec_principal}
securityPrincipal=Administrator
connectionURL=jndi\://
jndienv.1="com.sonicsw.jndi.mfcontext.idleTimeout\=60000" 
configurationName=MyAppConfig1
# This file is generated by verifier. Please provide configuration values below.
IGNORE #Mon Jul 14 19:36:08 PDT 2008
jndienv.0="com.sonicsw.jndi.mfcontext.domain\=Domain1"
securityCredential=credential
securityPrincipal=Administrator
connectionURL=jndi\://
jndienv.1="com.sonicsw.jndi.mfcontext.idleTimeout\=60000" 
configurationName=MyAppConfig2
# This file is generated by verifier. Please provide configuration values below.
IGNORE #Mon Jul 14 19:36:08 PDT 2008
jndienv.0="com.sonicsw.jndi.mfcontext.domain\=Domain1"
securityCredential=${sonic_sec_principal}
securityPrincipal=Administrator
connectionURL=jndi\://
jndienv.1="com.sonicsw.jndi.mfcontext.idleTimeout\=60000"
configurationName=MyAppConfig3

deploy the SA with WSDL 2.0
[i18n-echo] Deploying a service assembly
IGNORE [i18n-echo]   jmx connection info: (host=localhost, port=8699, secure=false, username=admin, target=server )
IGNORE [i18n-echo]   file=C:/cygwin/home/yz72237/build/open-esb/runtime/ui/bld/test-classes/dist/test-sa-wsdl20.jar
[jbi-deploy-service-assembly] Service assembly deployment succeeded. [
[jbi-deploy-service-assembly] SA1-wsdl20
[jbi-deploy-service-assembly] ]

BUILD SUCCESSFUL
IGNORE Total time: 2 seconds
export the environment
Exporting application environment
IGNORE  jmx connection info: (host=localhost, port=8699, secure=false, username=admin, target=server )
Export application environment succeeded. [
IGNORE Application Environment has been exported to "C:/cygwin/home/yz72237/build/open-esb/runtime/ui/bld/config20". 
]

BUILD SUCCESSFUL
IGNORE Total time: 2 seconds
dump the templates and scripts generated by verifier
# This file is generated by verifier. Please provide configuration values below.
IGNORE #Mon Jul 14 19:36:16 PDT 2008
GREETINGS=[STRING]Hello
INPUT_LOCATION=[STRING]c\:/in
OUTPUT_LOCATION=[STRING]c\:/out
sonic_sec_principal=
# This file is generated by verifier. Please provide configuration values below.
IGNORE #Mon Jul 14 19:36:16 PDT 2008
PROCESSED_LOCATION=[STRING]c\:processed
NEW_LOCATION=[STRING]c\:\new
sonic_sec_principal=
# This file is generated by verifier. Please provide configuration values below.
IGNORE #Mon Jul 14 19:36:16 PDT 2008
jndienv.0="com.sonicsw.jndi.mfcontext.domain\=Domain1"
securityCredential=${sonic_sec_principal}
securityPrincipal=Administrator
connectionURL=jndi\://
jndienv.1="com.sonicsw.jndi.mfcontext.idleTimeout\=60000" 
configurationName=MyAppConfig1
# This file is generated by verifier. Please provide configuration values below.
IGNORE #Mon Jul 14 19:36:16 PDT 2008
jndienv.0="com.sonicsw.jndi.mfcontext.domain\=Domain1"
securityCredential=credential
securityPrincipal=Administrator
connectionURL=jndi\://
jndienv.1="com.sonicsw.jndi.mfcontext.idleTimeout\=60000" 
configurationName=MyAppConfig2
# This file is generated by verifier. Please provide configuration values below.
IGNORE #Mon Jul 14 19:36:16 PDT 2008
jndienv.0="com.sonicsw.jndi.mfcontext.domain\=Domain1"
securityCredential=${sonic_sec_principal}
securityPrincipal=Administrator
connectionURL=jndi\://
jndienv.1="com.sonicsw.jndi.mfcontext.idleTimeout\=60000"
configurationName=MyAppConfig3
undeploy the SA
[i18n-echo] Undeploying a service assembly
IGNORE [i18n-echo]   jmx connection info: (host=localhost, port=8699, secure=false, username=admin, target=server )
[i18n-echo]   name=SA1
[jbi-undeploy-service-assembly] Service assembly undeployment succeeded. [
[jbi-undeploy-service-assembly] SA1
[jbi-undeploy-service-assembly] ]

BUILD SUCCESSFUL
IGNORE Total time: 2 seconds
undeploy the SA with WSDL 2.0
[i18n-echo] Undeploying a service assembly
IGNORE [i18n-echo]   jmx connection info: (host=localhost, port=8699, secure=false, username=admin, target=server )
[i18n-echo]   name=SA1-wsdl20
[jbi-undeploy-service-assembly] Service assembly undeployment succeeded. [
[jbi-undeploy-service-assembly] SA1-wsdl20
[jbi-undeploy-service-assembly] ]

BUILD SUCCESSFUL
IGNORE Total time: 2 seconds
uninstall the components
[i18n-echo] Shutting down a component
IGNORE [i18n-echo]   jmx connection info: (host=localhost, port=8699, secure=false, username=admin, target=server )
[i18n-echo]   name=test-component
[jbi-shut-down-component] Shutdown component succeeded. [
[jbi-shut-down-component] test-component
[jbi-shut-down-component] ]

BUILD SUCCESSFUL
IGNORE Total time: 2 seconds
[i18n-echo] Shutting down a component
IGNORE [i18n-echo]   jmx connection info: (host=localhost, port=8699, secure=false, username=admin, target=server )
[i18n-echo]   name=test-component1
[jbi-shut-down-component] Shutdown component succeeded. [
[jbi-shut-down-component] test-component1
[jbi-shut-down-component] ]

BUILD SUCCESSFUL
IGNORE Total time: 2 seconds
[i18n-echo] Uninstalling a component
IGNORE [i18n-echo]   jmx connection info: (host=localhost, port=8699, secure=false, username=admin, target=server )
[i18n-echo]   name=test-component
[jbi-uninstall-component] Uninstall component succeeded. [
[jbi-uninstall-component] test-component
[jbi-uninstall-component] ]

BUILD SUCCESSFUL
IGNORE Total time: 2 seconds
[i18n-echo] Uninstalling a component
IGNORE [i18n-echo]   jmx connection info: (host=localhost, port=8699, secure=false, username=admin, target=server )
[i18n-echo]   name=test-component1
[jbi-uninstall-component] Uninstall component succeeded. [
[jbi-uninstall-component] test-component1
[jbi-uninstall-component] ]

BUILD SUCCESSFUL
IGNORE Total time: 2 seconds
IGNORE JBI framework has been unloaded.
IGNORE Unloading JBI framework in response to VM termination.
IGNORE JBI framework shutdown complete.
